outflow/sha3_tb.vcd
$date
	Tue Jan 13 11:41:24 2026
$end
$version
	Icarus Verilog
$end
$timescale
	1ps
$end
$scope module sha3_tb $end
$var wire 1 ! ready $end
$var wire 256 " hash_out [255:0] $end
$var reg 1 # clk $end
$var reg 1 $ is_last $end
$var reg 1088 % message_block [1087:0] $end
$var reg 1 & rst_n $end
$var reg 1 ' start $end
$var integer 32 ( fail_count [31:0] $end
$var integer 32 ) pass_count [31:0] $end
$var integer 32 * test_num [31:0] $end
$scope module dut $end
$var wire 1 # clk $end
$var wire 1 $ is_last $end
$var wire 1088 + message_block [1087:0] $end
$var wire 1 & rst_n $end
$var wire 1 ' start $end
$var parameter 2 , ABSORB $end
$var parameter 2 - IDLE $end
$var parameter 2 . PERMUTE $end
$var parameter 2 / SQUEEZE $end
$var reg 256 0 hash_out [255:0] $end
$var reg 1 1 last_block $end
$var reg 1 ! ready $end
$var reg 5 2 round_counter [4:0] $end
$var reg 2 3 state [1:0] $end
$var integer 32 4 x [31:0] $end
$var integer 32 5 y [31:0] $end
$scope function RC $end
$var reg 5 6 round [4:0] $end
$upscope $end
$scope function byte_swap64 $end
$var reg 64 7 x [63:0] $end
$upscope $end
$scope function rho_offset $end
$var reg 3 8 xi [2:0] $end
$var reg 3 9 yi [2:0] $end
$upscope $end
$scope function rotl64 $end
$var reg 6 : n [5:0] $end
$var reg 64 ; x [63:0] $end
$upscope $end
$scope task keccak_round $end
$var reg 5 < round_idx [4:0] $end
$var integer 32 = xi [31:0] $end
$var integer 32 > yi [31:0] $end
$upscope $end
$upscope $end
$scope task hash_single_block $end
$var reg 256 ? expected [255:0] $end
$var reg 1088 @ msg [1087:0] $end
$upscope $end
$upscope $end
$enddefinitions $end
$comment Show the parameter values. $end
$dumpall
b11 /
b10 .
b0 -
b1 ,
$end
#0
$dumpvars
bx @
bx ?
bx >
bx =
bx <
bx ;
bx :
bx 9
bx 8
bx 7
bx 6
b101 5
b101 4
b0 3
b0 2
01
b0 0
b0 +
b0 *
b0 )
b0 (
0'
0&
b0 %
0$
0#
b0 "
1!
$end
#5000
b101 5
b101 4
1#
#10000
0#
#15000
b101 5
b101 4
1#
#20000
0#
#25000
b101 5
b101 4
1#
#30000
0#
#35000
b101 5
b101 4
1#
#40000
0#
#45000
b101 5
b101 4
1#
#50000
0#
#55000
b101 5
b101 4
1#
#60000
0#
#65000
b101 5
b101 4
1#
#70000
0#
#75000
b101 5
b101 4
1#
#80000
0#
#85000
b101 5
b101 4
1#
#90000
0#
#95000
b101 5
b101 4
1#
#100000
0#
1&
#105000
1#
#110000
0#
#115000
1#
#120000
0#
#125000
1#
#130000
0#
#135000
1#
#140000
0#
#145000
1#
#150000
0#
b1 *
b1010011111111111110001101111100010111111000111101101011101100110010100011100000101000111010101101010000001100001110101100110001011110101100000001111111101001101111001000011101101001001111110101000001011011000000010100100101110000000111110000100001101001010 ?
b110000000000000000000000000000000000000000000000000000000000000000000000000000000000000000000000000000000000000000000000000000000000000000000000000000000000000000000000000000000000000000000000000000000000000000000000000000000000000000000000000000000000000000000000000000000000000000000000000000000000000000000000000000000000000000000000000000000000000000000000000000000000000000000000000000000000000000000000000000000000000000000000000000000000000000000000000000000000000000000000000000000000000000000000000000000000000000000000000000000000000000000000000000000000000000000000000000000000000000000000000000000000000000000000000000000000000000000000000000000000000000000000000000000000000000000000000000000000000000000000000000000000000000000000000000000000000000000000000000000000000000000000000000000000000000000000000000000000000000000000000000000000000000000000000000000000000000000000000000000000000000000000000000000000000000000000000000000000000000000000000000000000000000000000000000000000000000000000000000000000000000000000000000000000000000000000000000000000000000010000000 @
#155000
11
0!
b1 3
1'
1$
b110000000000000000000000000000000000000000000000000000000000000000000000000000000000000000000000000000000000000000000000000000000000000000000000000000000000000000000000000000000000000000000000000000000000000000000000000000000000000000000000000000000000000000000000000000000000000000000000000000000000000000000000000000000000000000000000000000000000000000000000000000000000000000000000000000000000000000000000000000000000000000000000000000000000000000000000000000000000000000000000000000000000000000000000000000000000000000000000000000000000000000000000000000000000000000000000000000000000000000000000000000000000000000000000000000000000000000000000000000000000000000000000000000000000000000000000000000000000000000000000000000000000000000000000000000000000000000000000000000000000000000000000000000000000000000000000000000000000000000000000000000000000000000000000000000000000000000000000000000000000000000000000000000000000000000000000000000000000000000000000000000000000000000000000000000000000000000000000000000000000000000000000000000000000000000000000000000000000000000010000000 %
b110000000000000000000000000000000000000000000000000000000000000000000000000000000000000000000000000000000000000000000000000000000000000000000000000000000000000000000000000000000000000000000000000000000000000000000000000000000000000000000000000000000000000000000000000000000000000000000000000000000000000000000000000000000000000000000000000000000000000000000000000000000000000000000000000000000000000000000000000000000000000000000000000000000000000000000000000000000000000000000000000000000000000000000000000000000000000000000000000000000000000000000000000000000000000000000000000000000000000000000000000000000000000000000000000000000000000000000000000000000000000000000000000000000000000000000000000000000000000000000000000000000000000000000000000000000000000000000000000000000000000000000000000000000000000000000000000000000000000000000000000000000000000000000000000000000000000000000000000000000000000000000000000000000000000000000000000000000000000000000000000000000000000000000000000000000000000000000000000000000000000000000000000000000000000000000000000000000000000000010000000 +
1#
#160000
0#
#165000
b10 3
b10000000 7
0'
1#
#170000
0#
#175000
b1 2
b0 6
b100 8
b100 9
b101 >
b1100 ;
b1110 :
b101 =
b0 <
1#
#180000
0#
#185000
b10 2
b1 6
b100 8
b100 9
b101 >
b110000000000000110101100000000010100000000000000111110000010111 ;
b1110 :
b101 =
b1 <
1#
#190000
0#
#195000
b11 2
b10 6
b100 8
b100 9
b101 >
b1011111111101110110010101000011101100110010101000101100110100000 ;
b1110 :
b101 =
b10 <
1#
#200000
0#
#205000
b100 2
b11 6
b100 8
b100 9
b101 >
b1011110000010101010111111111110011011101000001111111110000110101 ;
b1110 :
b101 =
b11 <
1#
#210000
0#
#215000
b101 2
b100 6
b100 8
b100 9
b101 >
b11111000010100000010000100000101011110011011100010001101101110 ;
b1110 :
b101 =
b100 <
1#
#220000
0#
#225000
b110 2
b101 6
b100 8
b100 9
b101 >
b100010111110110100100000101100010000111111111011101111110110100 ;
b1110 :
b101 =
b101 <
1#
#230000
0#
#235000
b111 2
b110 6
b100 8
b100 9
b101 >
b1010010110101010101100100000110111110011010100111010111001011001 ;
b1110 :
b101 =
b110 <
1#
#240000
0#
#245000
b1000 2
b111 6
b100 8
b100 9
b101 >
b1011111000000111110010100010010000111101111100000110100001011010 ;
b1110 :
b101 =
b111 <
1#
#250000
0#
#255000
b1001 2
b1000 6
b100 8
b100 9
b101 >
b1110000011001111111110000110101011111011100101011110100011111001 ;
b1110 :
b101 =
b1000 <
1#
#260000
0#
#265000
b1010 2
b1001 6
b100 8
b100 9
b101 >
b11001011011110100100011101000011011110001000100001110111110110 ;
b1110 :
b101 =
b1001 <
1#
#270000
0#
#275000
b1011 2
b1010 6
b100 8
b100 9
b101 >
b1011111110011110000101000101000101011000001111001000111110000101 ;
b1110 :
b101 =
b1010 <
1#
#280000
0#
#285000
b1100 2
b1011 6
b100 8
b100 9
b101 >
b110101111011010111101010011111101111111111010010110001010001011 ;
b1110 :
b101 =
b1011 <
1#
#290000
0#
#295000
b1101 2
b1100 6
b100 8
b100 9
b101 >
b11011101001010000010101101011000100000010101101101101001111110 ;
b1110 :
b101 =
b1100 <
1#
#300000
0#
#305000
b1110 2
b1101 6
b100 8
b100 9
b101 >
b1111110111011011001010101011011000111010011101010111110101001 ;
b1110 :
b101 =
b1101 <
1#
#310000
0#
#315000
b1111 2
b1110 6
b100 8
b100 9
b101 >
b1111111101100100111011111001100111011000010101110110100110010000 ;
b1110 :
b101 =
b1110 <
1#
#320000
0#
#325000
b10000 2
b1111 6
b100 8
b100 9
b101 >
b1111111010011100010111111001100101011001110100010111110000101110 ;
b1110 :
b101 =
b1111 <
1#
#330000
0#
#335000
b10001 2
b10000 6
b100 8
b100 9
b101 >
b1011111110101111010110100101011111110101110000011001010000101110 ;
b1110 :
b101 =
b10000 <
1#
#340000
0#
#345000
b10010 2
b10001 6
b100 8
b100 9
b101 >
b1101010100100011111111011111101011100000110101011101001110110010 ;
b1110 :
b101 =
b10001 <
1#
#350000
0#
#355000
b10011 2
b10010 6
b100 8
b100 9
b101 >
b1010100110001111011101001101010111001101111100011000001001110 ;
b1110 :
b101 =
b10010 <
1#
#360000
0#
#365000
b10100 2
b10011 6
b100 8
b100 9
b101 >
b1110000111001101000001010110100001001111011111110011011100001100 ;
b1110 :
b101 =
b10011 <
1#
#370000
0#
#375000
b10101 2
b10100 6
b100 8
b100 9
b101 >
b1011100010111001111000100101110000110110010001111101111001010011 ;
b1110 :
b101 =
b10100 <
1#
#380000
0#
#385000
b10110 2
b10101 6
b100 8
b100 9
b101 >
b1001100111000101001001110111000111101000101000110010100111011 ;
b1110 :
b101 =
b10101 <
1#
#390000
0#
#395000
b10111 2
b10110 6
b100 8
b100 9
b101 >
b1011100011001000010001110101011111011011110100100010011110011000 ;
b1110 :
b101 =
b10110 <
1#
#400000
0#
#405000
b11 3
b10111 6
b100 8
b100 9
b101 >
b1001100000001011100010111100111100101000110100101100111011111111 ;
b1110 :
b101 =
b10111 <
1#
#410000
0#
#415000
b0 3
b1010011111111111110001101111100010111111000111101101011101100110010100011100000101000111010101101010000001100001110101100110001011110101100000001111111101001101111001000011101101001001111110101000001011011000000010100100101110000000111110000100001101001010 "
b1010011111111111110001101111100010111111000111101101011101100110010100011100000101000111010101101010000001100001110101100110001011110101100000001111111101001101111001000011101101001001111110101000001011011000000010100100101110000000111110000100001101001010 0
b101 5
b101 4
b100101001000011111110001000000001001011000010101101100010000010 7
1#
#420000
0#
#425000
1!
1#
#430000
0#
#435000
1#
#440000
0#
#445000
b10 *
b11101010011000010111011010011101001111111000100010010110110010000001000101110000010111001011010110101111010011100100001011110110000101010111110000100001101110001111101001110101010010010110110100011010111111111000100100010100010001010000110001010100110010 ?
b1100001011000100110001100000110000000000000000000000000000000000000000000000000000000000000000000000000000000000000000000000000000000000000000000000000000000000000000000000000000000000000000000000000000000000000000000000000000000000000000000000000000000000000000000000000000000000000000000000000000000000000000000000000000000000000000000000000000000000000000000000000000000000000000000000000000000000000000000000000000000000000000000000000000000000000000000000000000000000000000000000000000000000000000000000000000000000000000000000000000000000000000000000000000000000000000000000000000000000000000000000000000000000000000000000000000000000000000000000000000000000000000000000000000000000000000000000000000000000000000000000000000000000000000000000000000000000000000000000000000000000000000000000000000000000000000000000000000000000000000000000000000000000000000000000000000000000000000000000000000000000000000000000000000000000000000000000000000000000000000000000000000000000000000000000000000000000000000000000000000000000000000000000000000000000000000000000000000000000000000010000000 @
b1 )
1#
#450000
0#
#455000
0!
b1 3
1'
b1100001011000100110001100000110000000000000000000000000000000000000000000000000000000000000000000000000000000000000000000000000000000000000000000000000000000000000000000000000000000000000000000000000000000000000000000000000000000000000000000000000000000000000000000000000000000000000000000000000000000000000000000000000000000000000000000000000000000000000000000000000000000000000000000000000000000000000000000000000000000000000000000000000000000000000000000000000000000000000000000000000000000000000000000000000000000000000000000000000000000000000000000000000000000000000000000000000000000000000000000000000000000000000000000000000000000000000000000000000000000000000000000000000000000000000000000000000000000000000000000000000000000000000000000000000000000000000000000000000000000000000000000000000000000000000000000000000000000000000000000000000000000000000000000000000000000000000000000000000000000000000000000000000000000000000000000000000000000000000000000000000000000000000000000000000000000000000000000000000000000000000000000000000000000000000000000000000000000000000000010000000 %
b1100001011000100110001100000110000000000000000000000000000000000000000000000000000000000000000000000000000000000000000000000000000000000000000000000000000000000000000000000000000000000000000000000000000000000000000000000000000000000000000000000000000000000000000000000000000000000000000000000000000000000000000000000000000000000000000000000000000000000000000000000000000000000000000000000000000000000000000000000000000000000000000000000000000000000000000000000000000000000000000000000000000000000000000000000000000000000000000000000000000000000000000000000000000000000000000000000000000000000000000000000000000000000000000000000000000000000000000000000000000000000000000000000000000000000000000000000000000000000000000000000000000000000000000000000000000000000000000000000000000000000000000000000000000000000000000000000000000000000000000000000000000000000000000000000000000000000000000000000000000000000000000000000000000000000000000000000000000000000000000000000000000000000000000000000000000000000000000000000000000000000000000000000000000000000000000000000000000000000000000010000000 +
1#
#460000
0#
#465000
b10 3
b0 2
b10000000 7
0'
1#
#470000
0#
#475000
b1 2
b0 6
b100 8
b100 9
b101 >
b1100110001101100010011000010 ;
b1110 :
b101 =
b0 <
1#
#480000
0#
#485000
b10 2
b1 6
b100 8
b100 9
b101 >
b1100101000100010101000100111010111101011100100001110100010110000 ;
b1110 :
b101 =
b1 <
1#
#490000
0#
#495000
b11 2
b10 6
b100 8
b100 9
b101 >
b1011111111101011011011000011000111110101111110100011111111000011 ;
b1110 :
b101 =
b10 <
1#
#500000
0#
#505000
b100 2
b11 6
b100 8
b100 9
b101 >
b1101011100111001010010101011001101011001011001001100100000 ;
b1110 :
b101 =
b11 <
1#
#510000
0#
#515000
b101 2
b100 6
b100 8
b100 9
b101 >
b1010111100100101100000110010111111110110101010011000111111111101 ;
b1110 :
b101 =
b100 <
1#
#520000
0#
#525000
b110 2
b101 6
b100 8
b100 9
b101 >
b100000100011110111110110100011100101100010000010011010001001101 ;
b1110 :
b101 =
b101 <
1#
#530000
0#
#535000
b111 2
b110 6
b100 8
b100 9
b101 >
b1111101101000110011110111101000110011000111001100111010000100001 ;
b1110 :
b101 =
b110 <
1#
#540000
0#
#545000
b1000 2
b111 6
b100 8
b100 9
b101 >
b1110000111101101111111101000101001101011010000010000001011110 ;
b1110 :
b101 =
b111 <
1#
#550000
0#
#555000
b1001 2
b1000 6
b100 8
b100 9
b101 >
b1111000100101010111000010011011011011101111100010000110110011000 ;
b1110 :
b101 =
b1000 <
1#
#560000
0#
#565000
b1010 2
b1001 6
b100 8
b100 9
b101 >
b110110111100000111000000101100001000001000000001000011011110 ;
b1110 :
b101 =
b1001 <
1#
#570000
0#
#575000
b1011 2
b1010 6
b100 8
b100 9
b101 >
b1011010011101111010101000111100001111000011111101110111101101001 ;
b1110 :
b101 =
b1010 <
1#
#580000
0#
#585000
b1100 2
b1011 6
b100 8
b100 9
b101 >
b1101001000101000100010001110011000011011100111101011010101001 ;
b1110 :
b101 =
b1011 <
1#
#590000
0#
#595000
b1101 2
b1100 6
b100 8
b100 9
b101 >
b1001001000111011101011011010110110111011110101010000001100110011 ;
b1110 :
b101 =
b1100 <
1#
#600000
0#
#605000
b1110 2
b1101 6
b100 8
b100 9
b101 >
b100011101111001111100011011011110011111000011000100111110110011 ;
b1110 :
b101 =
b1101 <
1#
#610000
0#
#615000
b1111 2
b1110 6
b100 8
b100 9
b101 >
b111111101101001000101000101100001000011000101001010111000101111 ;
b1110 :
b101 =
b1110 <
1#
#620000
0#
#625000
b10000 2
b1111 6
b100 8
b100 9
b101 >
b101010011010100000000101100101100111110111110101101110110101101 ;
b1110 :
b101 =
b1111 <
1#
#630000
0#
#635000
b10001 2
b10000 6
b100 8
b100 9
b101 >
b100000100000101101001010100011000101100111111001011000000010001 ;
b1110 :
b101 =
b10000 <
1#
#640000
0#
#645000
b10010 2
b10001 6
b100 8
b100 9
b101 >
b1100111001110010100001011111101000011000010111110001000101001111 ;
b1110 :
b101 =
b10001 <
1#
#650000
0#
#655000
b10011 2
b10010 6
b100 8
b100 9
b101 >
b1010010111101111100110101011100111111001100111110000111100010010 ;
b1110 :
b101 =
b10010 <
1#
#660000
0#
#665000
b10100 2
b10011 6
b100 8
b100 9
b101 >
b100011010010101010000101010010001101111011011111001010110110010 ;
b1110 :
b101 =
b10011 <
1#
#670000
0#
#675000
b10101 2
b10100 6
b100 8
b100 9
b101 >
b10010111100111011101011000011011011011011110001100011100011111 ;
b1110 :
b101 =
b10100 <
1#
#680000
0#
#685000
b10110 2
b10101 6
b100 8
b100 9
b101 >
b1100100100101000010100000011010111011101110011011110001001100101 ;
b1110 :
b101 =
b10101 <
1#
#690000
0#
#695000
b10111 2
b10110 6
b100 8
b100 9
b101 >
b1101001010010000110010111100110010100001100110001111001011001000 ;
b1110 :
b101 =
b10110 <
1#
#700000
0#
#705000
b11 3
b10111 6
b100 8
b100 9
b101 >
b100101001010101110101100000001000001111011011001010100101011011 ;
b1110 :
b101 =
b10111 <
1#
#710000
0#
#715000
b0 3
b11101010011000010111011010011101001111111000100010010110110010000001000101110000010111001011010110101111010011100100001011110110000101010111110000100001101110001111101001110101010010010110110100011010111111111000100100010100010001010000110001010100110010 "
b11101010011000010111011010011101001111111000100010010110110010000001000101110000010111001011010110101111010011100100001011110110000101010111110000100001101110001111101001110101010010010110110100011010111111111000100100010100010001010000110001010100110010 0
b101 5
b101 4
b11001000010101010000110001000101000101111000101011111101000110 7
1#
#720000
0#
#725000
1!
1#
#730000
0#
#735000
1#
#740000
0#
#745000
b11 *
b100000111000000110110111010001010101001110101100010010000001000010010010001000000000011011101101010100000100011010111100010110010000010111000011011100110011001100010101001100110011110001000011101101100110010110111011001011101001001011011010011001101110110 ?
b1100001011000100110001101100100011000100110001101100100011001010110001101100100011001010110011001100100011001010110011001100111011001010110011001100111011010000110011001100111011010000110100101100111011010000110100101101010011010000110100101101010011010110110100101101010011010110110110001101010011010110110110001101101011010110110110001101101011011100110110001101101011011100110111101101101011011100110111101110000011011100110111101110000011100010000011000000000000000000000000000000000000000000000000000000000000000000000000000000000000000000000000000000000000000000000000000000000000000000000000000000000000000000000000000000000000000000000000000000000000000000000000000000000000000000000000000000000000000000000000000000000000000000000000000000000000000000000000000000000000000000000000000000000000000000000000000000000000000000000000000000000000000000000000000000000000000000000000000000000000000000000000000000000000000000000000000000000000000000000000000000000000000000000000000000000000000000000000000000000000000000000000000000000000000000000000000000000000000000000000010000000 @
b10 )
1#
#750000
0#
#755000
0!
b1 3
1'
b1100001011000100110001101100100011000100110001101100100011001010110001101100100011001010110011001100100011001010110011001100111011001010110011001100111011010000110011001100111011010000110100101100111011010000110100101101010011010000110100101101010011010110110100101101010011010110110110001101010011010110110110001101101011010110110110001101101011011100110110001101101011011100110111101101101011011100110111101110000011011100110111101110000011100010000011000000000000000000000000000000000000000000000000000000000000000000000000000000000000000000000000000000000000000000000000000000000000000000000000000000000000000000000000000000000000000000000000000000000000000000000000000000000000000000000000000000000000000000000000000000000000000000000000000000000000000000000000000000000000000000000000000000000000000000000000000000000000000000000000000000000000000000000000000000000000000000000000000000000000000000000000000000000000000000000000000000000000000000000000000000000000000000000000000000000000000000000000000000000000000000000000000000000000000000000000000000000000000000000000010000000 %
b1100001011000100110001101100100011000100110001101100100011001010110001101100100011001010110011001100100011001010110011001100111011001010110011001100111011010000110011001100111011010000110100101100111011010000110100101101010011010000110100101101010011010110110100101101010011010110110110001101010011010110110110001101101011010110110110001101101011011100110110001101101011011100110111101101101011011100110111101110000011011100110111101110000011100010000011000000000000000000000000000000000000000000000000000000000000000000000000000000000000000000000000000000000000000000000000000000000000000000000000000000000000000000000000000000000000000000000000000000000000000000000000000000000000000000000000000000000000000000000000000000000000000000000000000000000000000000000000000000000000000000000000000000000000000000000000000000000000000000000000000000000000000000000000000000000000000000000000000000000000000000000000000000000000000000000000000000000000000000000000000000000000000000000000000000000000000000000000000000000000000000000000000000000000000000000000000000000000000000000000010000000 +
1#
#760000
0#
#765000
b10 3
b0 2
b10000000 7
0'
1#
#770000
0#
#775000
b1 2
b0 6
b100 8
b100 9
b101 >
b111111101111110011101010111010001111110011101010111010001110011 ;
b1110 :
b101 =
b0 <
1#
#780000
0#
#785000
b10 2
b1 6
b100 8
b100 9
b101 >
b10010001101011111111101111111100011001001101010101111110111110 ;
b1110 :
b101 =
b1 <
1#
#790000
0#
#795000
b11 2
b10 6
b100 8
b100 9
b101 >
b1111000011001000000000100100001101100011011011111100000000100100 ;
b1110 :
b101 =
b10 <
1#
#800000
0#
#805000
b100 2
b11 6
b100 8
b100 9
b101 >
b1110111101111100000001001000111100010110000011011101101011111100 ;
b1110 :
b101 =
b11 <
1#
#810000
0#
#815000
b101 2
b100 6
b100 8
b100 9
b101 >
b1000110000010010010101110000011100100000001100010111100110000100 ;
b1110 :
b101 =
b100 <
1#
#820000
0#
#825000
b110 2
b101 6
b100 8
b100 9
b101 >
b1111011000001111101000011001010010101110100000001011110011010101 ;
b1110 :
b101 =
b101 <
1#
#830000
0#
#835000
b111 2
b110 6
b100 8
b100 9
b101 >
b1100011100001110011010011000101001000001100100010100000100000111 ;
b1110 :
b101 =
b110 <
1#
#840000
0#
#845000
b1000 2
b111 6
b100 8
b100 9
b101 >
b1001100001000011001110101111110100111011010011001110100101000111 ;
b1110 :
b101 =
b111 <
1#
#850000
0#
#855000
b1001 2
b1000 6
b100 8
b100 9
b101 >
b111000101111001100011010011111000001000100111110100010111000001 ;
b1110 :
b101 =
b1000 <
1#
#860000
0#
#865000
b1010 2
b1001 6
b100 8
b100 9
b101 >
b1000010101000000001010011011010000010110001100010101011001001011 ;
b1110 :
b101 =
b1001 <
1#
#870000
0#
#875000
b1011 2
b1010 6
b100 8
b100 9
b101 >
b1110000000001000010111000010101111001000100111010001101001100101 ;
b1110 :
b101 =
b1010 <
1#
#880000
0#
#885000
b1100 2
b1011 6
b100 8
b100 9
b101 >
b100100000011011100100010111011111101110010101000111010010100111 ;
b1110 :
b101 =
b1011 <
1#
#890000
0#
#895000
b1101 2
b1100 6
b100 8
b100 9
b101 >
b100000011101001000001111100011101101110101111111111010011100001 ;
b1110 :
b101 =
b1100 <
1#
#900000
0#
#905000
b1110 2
b1101 6
b100 8
b100 9
b101 >
b111001000111111011101111111010010010100010000010001011001110011 ;
b1110 :
b101 =
b1101 <
1#
#910000
0#
#915000
b1111 2
b1110 6
b100 8
b100 9
b101 >
b1111101110001101101101001001100000101101010101000100011110110100 ;
b1110 :
b101 =
b1110 <
1#
#920000
0#
#925000
b10000 2
b1111 6
b100 8
b100 9
b101 >
b11011011111011100010111100010001111000110000001001010000111100 ;
b1110 :
b101 =
b1111 <
1#
#930000
0#
#935000
b10001 2
b10000 6
b100 8
b100 9
b101 >
b101000010011110101110001100110001001011000011001101101001001 ;
b1110 :
b101 =
b10000 <
1#
#940000
0#
#945000
b10010 2
b10001 6
b100 8
b100 9
b101 >
b1101001000110100011111100100001101011111100011101000101100001010 ;
b1110 :
b101 =
b10001 <
1#
#950000
0#
#955000
b10011 2
b10010 6
b100 8
b100 9
b101 >
b1111000111011100111000111100000000110010101111101101100111011101 ;
b1110 :
b101 =
b10010 <
1#
#960000
0#
#965000
b10100 2
b10011 6
b100 8
b100 9
b101 >
b1001101001010001001011011100010001101010001000011101101001000000 ;
b1110 :
b101 =
b10011 <
1#
#970000
0#
#975000
b10101 2
b10100 6
b100 8
b100 9
b101 >
b1111101001111101000110101001100100000100100110000001001001010 ;
b1110 :
b101 =
b10100 <
1#
#980000
0#
#985000
b10110 2
b10101 6
b100 8
b100 9
b101 >
b111010110010001000110100100010101101000000001010010010101101010 ;
b1110 :
b101 =
b10101 <
1#
#990000
0#
#995000
b10111 2
b10110 6
b100 8
b100 9
b101 >
b1011111011010100001000010001100110011001110001111111010011001001 ;
b1110 :
b101 =
b10110 <
1#
#1000000
0#
#1005000
b11 3
b10111 6
b100 8
b100 9
b101 >
b1100001010111100101101111010100101110010110111100010110101100101 ;
b1110 :
b101 =
b10111 <
1#
#1010000
0#
#1015000
b0 3
b100000111000000110110111010001010101001110101100010010000001000010010010001000000000011011101101010100000100011010111100010110010000010111000011011100110011001100010101001100110011110001000011101101100110010110111011001011101001001011011010011001101110110 "
b100000111000000110110111010001010101001110101100010010000001000010010010001000000000011011101101010100000100011010111100010110010000010111000011011100110011001100010101001100110011110001000011101101100110010110111011001011101001001011011010011001101110110 0
b101 5
b101 4
b111011000110011011011010100100110010111110111010011001011011011 7
1#
#1020000
0#
#1025000
1!
1#
#1030000
0#
#1035000
1#
#1040000
0#
#1045000
b100 *
b1000000000001000010010111111001011111011101000000010010001110101011100100110111111101011001011001010101100101101100000100001010111101010101100010100101111000110101111011101100010111111101100101100100000010101000100100101011100000011001011101100110110001011 ?
b1100001000001100000000000000000000000000000000000000000000000000000000000000000000000000000000000000000000000000000000000000000000000000000000000000000000000000000000000000000000000000000000000000000000000000000000000000000000000000000000000000000000000000000000000000000000000000000000000000000000000000000000000000000000000000000000000000000000000000000000000000000000000000000000000000000000000000000000000000000000000000000000000000000000000000000000000000000000000000000000000000000000000000000000000000000000000000000000000000000000000000000000000000000000000000000000000000000000000000000000000000000000000000000000000000000000000000000000000000000000000000000000000000000000000000000000000000000000000000000000000000000000000000000000000000000000000000000000000000000000000000000000000000000000000000000000000000000000000000000000000000000000000000000000000000000000000000000000000000000000000000000000000000000000000000000000000000000000000000000000000000000000000000000000000000000000000000000000000000000000000000000000000000000000000000000000000000000000000000000000010000000 @
b11 )
1#
#1050000
0#
#1055000
0!
b1 3
1'
b1100001000001100000000000000000000000000000000000000000000000000000000000000000000000000000000000000000000000000000000000000000000000000000000000000000000000000000000000000000000000000000000000000000000000000000000000000000000000000000000000000000000000000000000000000000000000000000000000000000000000000000000000000000000000000000000000000000000000000000000000000000000000000000000000000000000000000000000000000000000000000000000000000000000000000000000000000000000000000000000000000000000000000000000000000000000000000000000000000000000000000000000000000000000000000000000000000000000000000000000000000000000000000000000000000000000000000000000000000000000000000000000000000000000000000000000000000000000000000000000000000000000000000000000000000000000000000000000000000000000000000000000000000000000000000000000000000000000000000000000000000000000000000000000000000000000000000000000000000000000000000000000000000000000000000000000000000000000000000000000000000000000000000000000000000000000000000000000000000000000000000000000000000000000000000000000000000000000000000000000010000000 %
b1100001000001100000000000000000000000000000000000000000000000000000000000000000000000000000000000000000000000000000000000000000000000000000000000000000000000000000000000000000000000000000000000000000000000000000000000000000000000000000000000000000000000000000000000000000000000000000000000000000000000000000000000000000000000000000000000000000000000000000000000000000000000000000000000000000000000000000000000000000000000000000000000000000000000000000000000000000000000000000000000000000000000000000000000000000000000000000000000000000000000000000000000000000000000000000000000000000000000000000000000000000000000000000000000000000000000000000000000000000000000000000000000000000000000000000000000000000000000000000000000000000000000000000000000000000000000000000000000000000000000000000000000000000000000000000000000000000000000000000000000000000000000000000000000000000000000000000000000000000000000000000000000000000000000000000000000000000000000000000000000000000000000000000000000000000000000000000000000000000000000000000000000000000000000000000000000000000000000000000000010000000 +
1#
#1060000
0#
#1065000
b10 3
b0 2
b10000000 7
0'
1#
#1070000
0#
#1075000
b1 2
b0 6
b100 8
b100 9
b101 >
b110011000010 ;
b1110 :
b101 =
b0 <
1#
#1080000
0#
#1085000
b10 2
b1 6
b100 8
b100 9
b101 >
b110000011000000111110001010101000110000001111111000110001110000 ;
b1110 :
b101 =
b1 <
1#
#1090000
0#
#1095000
b11 2
b10 6
b100 8
b100 9
b101 >
b101111110101010001111111000011000000111111010111001111001110101 ;
b1110 :
b101 =
b10 <
1#
#1100000
0#
#1105000
b100 2
b11 6
b100 8
b100 9
b101 >
b111000001101101000111101010110111000110001100011100111101001010 ;
b1110 :
b101 =
b11 <
1#
#1110000
0#
#1115000
b101 2
b100 6
b100 8
b100 9
b101 >
b10100011001111100101100100001000001011011010001000001000010000 ;
b1110 :
b101 =
b100 <
1#
#1120000
0#
#1125000
b110 2
b101 6
b100 8
b100 9
b101 >
b1111101001110110111010001100000001011000010100010011000010101100 ;
b1110 :
b101 =
b101 <
1#
#1130000
0#
#1135000
b111 2
b110 6
b100 8
b100 9
b101 >
b1110010000110011001110010101000111000100010110000101010000111101 ;
b1110 :
b101 =
b110 <
1#
#1140000
0#
#1145000
b1000 2
b111 6
b100 8
b100 9
b101 >
b1011100011100100010001110011000000011100100011101001100001010010 ;
b1110 :
b101 =
b111 <
1#
#1150000
0#
#1155000
b1001 2
b1000 6
b100 8
b100 9
b101 >
b100101011101100011000010100100011111000111101010011111111000011 ;
b1110 :
b101 =
b1000 <
1#
#1160000
0#
#1165000
b1010 2
b1001 6
b100 8
b100 9
b101 >
b1100110110001010001101110001111111110000101011111001111101111011 ;
b1110 :
b101 =
b1001 <
1#
#1170000
0#
#1175000
b1011 2
b1010 6
b100 8
b100 9
b101 >
b100110110101001101001001001000011111100011000110110000101010101 ;
b1110 :
b101 =
b1010 <
1#
#1180000
0#
#1185000
b1100 2
b1011 6
b100 8
b100 9
b101 >
b1101101000000111000011000111111100101000111000101001001010001111 ;
b1110 :
b101 =
b1011 <
1#
#1190000
0#
#1195000
b1101 2
b1100 6
b100 8
b100 9
b101 >
b1011001001100101010000011101101100110100101001101000010000110010 ;
b1110 :
b101 =
b1100 <
1#
#1200000
0#
#1205000
b1110 2
b1101 6
b100 8
b100 9
b101 >
b1001110111110101111100101011100110101011110000001101000010100111 ;
b1110 :
b101 =
b1101 <
1#
#1210000
0#
#1215000
b1111 2
b1110 6
b100 8
b100 9
b101 >
b1011101110111101101001000000001001010111011001001101010000011110 ;
b1110 :
b101 =
b1110 <
1#
#1220000
0#
#1225000
b10000 2
b1111 6
b100 8
b100 9
b101 >
b1010000010101100110100010010111101100001011001010011100101111010 ;
b1110 :
b101 =
b1111 <
1#
#1230000
0#
#1235000
b10001 2
b10000 6
b100 8
b100 9
b101 >
b1000011111010100110111000010110101010010110111000001000010010111 ;
b1110 :
b101 =
b10000 <
1#
#1240000
0#
#1245000
b10010 2
b10001 6
b100 8
b100 9
b101 >
b1111011011101101111100100011100010001000110001010111110111011100 ;
b1110 :
b101 =
b10001 <
1#
#1250000
0#
#1255000
b10011 2
b10010 6
b100 8
b100 9
b101 >
b101110010010100011111000100001101001110101111010000001110111010 ;
b1110 :
b101 =
b10010 <
1#
#1260000
0#
#1265000
b10100 2
b10011 6
b100 8
b100 9
b101 >
b1001101101011010111001011011001001111111000011011110011100000100 ;
b1110 :
b101 =
b10011 <
1#
#1270000
0#
